 * Task [Fix a problem of project resources linked to items] : Nothing to do
 * Task [RestRequestWrongCallMigrationTask] : Applied successfully
 * Task [FormContentTypeMigrationTask] : Applied successfully
 * Task [AutoUpdateRelationsMigrationTask] : Applied successfully
 ---=== End of migration ===---
